1 2 6 8
3 5 9 20
18 5 6 19 3 4 8 11
10 12 1 3 4 8 18 19 13
20 19 18 10 9 7 6
3 9 4 1 12 17 19 20
8 20 5 7 9 2 16 18
1 2 4 5 8 9 12 16 18 19 20
1 7 8
9
10 11 20
1 6 18 5 11
1 2 3 5 8 19
19 18 10 6 4 8 16
3 4 7 8 9 10 1 18 19 15 16